%YAML 1.1
%TAG !u! tag:unity3d.com,2011:
--- !u!29 &1
OcclusionCullingSettings:
  m_ObjectHideFlags: 0
  serializedVersion: 2
  m_OcclusionBakeSettings:
    smallestOccluder: 5
    smallestHole: 0.25
    backfaceThreshold: 100
  m_SceneGUID: 00000000000000000000000000000000
  m_OcclusionCullingData: {fileID: 0}
--- !u!104 &2
RenderSettings:
  m_ObjectHideFlags: 0
  serializedVersion: 8
  m_Fog: 0
  m_FogColor: {r: 0.5, g: 0.5, b: 0.5, a: 1}
  m_FogMode: 3
  m_FogDensity: 0.01
  m_LinearFogStart: 0
  m_LinearFogEnd: 300
  m_AmbientSkyColor: {r: 0.2, g: 0.2, b: 0.2, a: 1}
  m_AmbientEquatorColor: {r: 0.2, g: 0.2, b: 0.2, a: 1}
  m_AmbientGroundColor: {r: 0.2, g: 0.2, b: 0.2, a: 1}
  m_AmbientIntensity: 1
  m_AmbientMode: 3
  m_SubtractiveShadowColor: {r: 0.42, g: 0.478, b: 0.627, a: 1}
  m_SkyboxMaterial: {fileID: 0}
  m_HaloStrength: 0.5
  m_FlareStrength: 1
  m_FlareFadeSpeed: 3
  m_HaloTexture: {fileID: 0}
  m_SpotCookie: {fileID: 10001, guid: 0000000000000000e000000000000000, type: 0}
  m_DefaultReflectionMode: 0
  m_DefaultReflectionResolution: 128
  m_ReflectionBounces: 1
  m_ReflectionIntensity: 1
  m_CustomReflection: {fileID: 0}
  m_Sun: {fileID: 0}
  m_IndirectSpecularColor: {r: 0, g: 0, b: 0, a: 1}
--- !u!157 &4
LightmapSettings:
  m_ObjectHideFlags: 0
  serializedVersion: 11
  m_GIWorkflowMode: 1
  m_GISettings:
    serializedVersion: 2
    m_BounceScale: 1
    m_IndirectOutputScale: 1
    m_AlbedoBoost: 1
    m_TemporalCoherenceThreshold: 1
    m_EnvironmentLightingMode: 0
    m_EnableBakedLightmaps: 1
    m_EnableRealtimeLightmaps: 0
  m_LightmapEditorSettings:
    serializedVersion: 9
    m_Resolution: 1
    m_BakeResolution: 50
    m_TextureWidth: 1024
    m_TextureHeight: 1024
    m_AO: 0
    m_AOMaxDistance: 1
    m_CompAOExponent: 0
    m_CompAOExponentDirect: 0
    m_Padding: 2
    m_LightmapParameters: {fileID: 0}
    m_LightmapsBakeMode: 1
    m_TextureCompression: 0
    m_FinalGather: 0
    m_FinalGatherFiltering: 1
    m_FinalGatherRayCount: 1024
    m_ReflectionCompression: 2
    m_MixedBakeMode: 1
    m_BakeBackend: 0
    m_PVRSampling: 1
    m_PVRDirectSampleCount: 32
    m_PVRSampleCount: 500
    m_PVRBounces: 2
    m_PVRFilterTypeDirect: 0
    m_PVRFilterTypeIndirect: 0
    m_PVRFilterTypeAO: 0
    m_PVRFilteringMode: 1
    m_PVRCulling: 1
    m_PVRFilteringGaussRadiusDirect: 1
    m_PVRFilteringGaussRadiusIndirect: 5
    m_PVRFilteringGaussRadiusAO: 2
    m_PVRFilteringAtrousPositionSigmaDirect: 0.5
    m_PVRFilteringAtrousPositionSigmaIndirect: 2
    m_PVRFilteringAtrousPositionSigmaAO: 1
  m_LightingDataAsset: {fileID: 0}
  m_UseShadowmask: 0
--- !u!196 &5
NavMeshSettings:
  serializedVersion: 2
  m_ObjectHideFlags: 0
  m_BuildSettings:
    serializedVersion: 2
    agentTypeID: 0
    agentRadius: 0.5
    agentHeight: 2
    agentSlope: 45
    agentClimb: 0.4
    ledgeDropHeight: 0
    maxJumpAcrossDistance: 0
    minRegionArea: 2
    manualCellSize: 0
    cellSize: 0.16666666
    manualTileSize: 0
    tileSize: 256
    accuratePlacement: 0
    debug:
      m_Flags: 0
  m_NavMeshData: {fileID: 0}
--- !u!224 &155152905 stripped
RectTransform:
  m_PrefabParentObject: {fileID: 22400004, guid: 8a0cab5ff0a9b465bbc169d7ad27a67f,
    type: 2}
  m_PrefabInternal: {fileID: 1034769332}
--- !u!1 &166367675
GameObject:
  m_ObjectHideFlags: 0
  m_PrefabParentObject: {fileID: 0}
  m_PrefabInternal: {fileID: 0}
  serializedVersion: 5
  m_Component:
  - component: {fileID: 166367678}
  - component: {fileID: 166367677}
  m_Layer: 5
  m_Name: Numbers
  m_TagString: Untagged
  m_Icon: {fileID: 0}
  m_NavMeshLayer: 0
  m_StaticEditorFlags: 0
  m_IsActive: 1
--- !u!114 &166367677
MonoBehaviour:
  m_ObjectHideFlags: 0
  m_PrefabParentObject: {fileID: 0}
  m_PrefabInternal: {fileID: 0}
  m_GameObject: {fileID: 166367675}
  m_Enabled: 1
  m_EditorHideFlags: 0
  m_Script: {fileID: 1297475563, guid: f5f67c52d1564df4a8936ccd202a3bd8, type: 3}
  m_Name: 
  m_EditorClassIdentifier: 
  m_Padding:
    m_Left: 0
    m_Right: 0
    m_Top: 0
    m_Bottom: 0
  m_ChildAlignment: 2
  m_Spacing: 0
  m_ChildForceExpandWidth: 1
  m_ChildForceExpandHeight: 0
  m_ChildControlWidth: 1
  m_ChildControlHeight: 1
--- !u!224 &166367678
RectTransform:
  m_ObjectHideFlags: 0
  m_PrefabParentObject: {fileID: 0}
  m_PrefabInternal: {fileID: 0}
  m_GameObject: {fileID: 166367675}
  m_LocalRotation: {x: 0, y: 0, z: 0, w: 1}
  m_LocalPosition: {x: 0, y: 172.84, z: 0}
  m_LocalScale: {x: 1, y: 1, z: 1}
  m_Children:
  - {fileID: 1925936814}
  m_Father: {fileID: 920952692}
  m_RootOrder: 0
  m_LocalEulerAnglesHint: {x: 0, y: 0, z: 0}
  m_AnchorMin: {x: 0, y: 0}
  m_AnchorMax: {x: 1, y: 1}
  m_AnchoredPosition: {x: 0, y: 172.84}
  m_SizeDelta: {x: -100, y: -625.68}
  m_Pivot: {x: 0.5, y: 0.5}
--- !u!1001 &303246750
Prefab:
  m_ObjectHideFlags: 0
  serializedVersion: 2
  m_Modification:
    m_TransformParent: {fileID: 920952692}
    m_Modifications:
    - target: {fileID: 22400002, guid: a93c012dd9ef6454fa7d140e976926f7, type: 2}
      propertyPath: m_LocalPosition.x
      value: 0
      objectReference: {fileID: 0}
    - target: {fileID: 22400002, guid: a93c012dd9ef6454fa7d140e976926f7, type: 2}
      propertyPath: m_LocalPosition.y
      value: 0
      objectReference: {fileID: 0}
    - target: {fileID: 22400002, guid: a93c012dd9ef6454fa7d140e976926f7, type: 2}
      propertyPath: m_LocalPosition.z
      value: 0
      objectReference: {fileID: 0}
    - target: {fileID: 22400002, guid: a93c012dd9ef6454fa7d140e976926f7, type: 2}
      propertyPath: m_LocalRotation.x
      value: 0
      objectReference: {fileID: 0}
    - target: {fileID: 22400002, guid: a93c012dd9ef6454fa7d140e976926f7, type: 2}
      propertyPath: m_LocalRotation.y
      value: 0
      objectReference: {fileID: 0}
    - target: {fileID: 22400002, guid: a93c012dd9ef6454fa7d140e976926f7, type: 2}
      propertyPath: m_LocalRotation.z
      value: 0
      objectReference: {fileID: 0}
    - target: {fileID: 22400002, guid: a93c012dd9ef6454fa7d140e976926f7, type: 2}
      propertyPath: m_LocalRotation.w
      value: 1
      objectReference: {fileID: 0}
    - target: {fileID: 22400002, guid: a93c012dd9ef6454fa7d140e976926f7, type: 2}
      propertyPath: m_RootMapOrder
      value: -1
      objectReference: {fileID: 0}
    - target: {fileID: 22400002, guid: a93c012dd9ef6454fa7d140e976926f7, type: 2}
      propertyPath: m_AnchoredPosition.x
      value: 0.0000019073486
      objectReference: {fileID: 0}
    - target: {fileID: 22400002, guid: a93c012dd9ef6454fa7d140e976926f7, type: 2}
      propertyPath: m_AnchoredPosition.y
      value: -95
      objectReference: {fileID: 0}
    - target: {fileID: 22400002, guid: a93c012dd9ef6454fa7d140e976926f7, type: 2}
      propertyPath: m_SizeDelta.x
      value: -110
      objectReference: {fileID: 0}
    - target: {fileID: 22400002, guid: a93c012dd9ef6454fa7d140e976926f7, type: 2}
      propertyPath: m_SizeDelta.y
      value: 80
      objectReference: {fileID: 0}
    - target: {fileID: 22400002, guid: a93c012dd9ef6454fa7d140e976926f7, type: 2}
      propertyPath: m_AnchorMin.x
      value: 0
      objectReference: {fileID: 0}
    - target: {fileID: 22400002, guid: a93c012dd9ef6454fa7d140e976926f7, type: 2}
      propertyPath: m_AnchorMin.y
      value: 1
      objectReference: {fileID: 0}
    - target: {fileID: 22400002, guid: a93c012dd9ef6454fa7d140e976926f7, type: 2}
      propertyPath: m_AnchorMax.x
      value: 1
      objectReference: {fileID: 0}
    - target: {fileID: 22400002, guid: a93c012dd9ef6454fa7d140e976926f7, type: 2}
      propertyPath: m_AnchorMax.y
      value: 1
      objectReference: {fileID: 0}
    - target: {fileID: 22400002, guid: a93c012dd9ef6454fa7d140e976926f7, type: 2}
      propertyPath: m_Pivot.x
      value: 0.5
      objectReference: {fileID: 0}
    - target: {fileID: 22400002, guid: a93c012dd9ef6454fa7d140e976926f7, type: 2}
      propertyPath: m_Pivot.y
      value: 0.5
      objectReference: {fileID: 0}
    - target: {fileID: 11400004, guid: a93c012dd9ef6454fa7d140e976926f7, type: 2}
      propertyPath: m_Text
      value: Number of players
      objectReference: {fileID: 0}
    - target: {fileID: 100002, guid: a93c012dd9ef6454fa7d140e976926f7, type: 2}
      propertyPath: m_Name
      value: Players
      objectReference: {fileID: 0}
    - target: {fileID: 22400002, guid: a93c012dd9ef6454fa7d140e976926f7, type: 2}
      propertyPath: m_RootOrder
      value: 1
      objectReference: {fileID: 0}
    m_RemovedComponents: []
  m_ParentPrefab: {fileID: 100100000, guid: a93c012dd9ef6454fa7d140e976926f7, type: 2}
  m_IsPrefabParent: 0
--- !u!1 &471287113
GameObject:
  m_ObjectHideFlags: 0
  m_PrefabParentObject: {fileID: 0}
  m_PrefabInternal: {fileID: 0}
  serializedVersion: 5
  m_Component:
  - component: {fileID: 471287118}
  - component: {fileID: 471287117}
  - component: {fileID: 471287116}
  - component: {fileID: 471287114}
  m_Layer: 0
  m_Name: EventSystem
  m_TagString: Untagged
  m_Icon: {fileID: 0}
  m_NavMeshLayer: 0
  m_StaticEditorFlags: 0
  m_IsActive: 1
--- !u!114 &471287114
MonoBehaviour:
  m_ObjectHideFlags: 0
  m_PrefabParentObject: {fileID: 0}
  m_PrefabInternal: {fileID: 0}
  m_GameObject: {fileID: 471287113}
  m_Enabled: 1
  m_EditorHideFlags: 0
  m_Script: {fileID: 1997211142, guid: f5f67c52d1564df4a8936ccd202a3bd8, type: 3}
  m_Name: 
  m_EditorClassIdentifier: 
  m_ForceModuleActive: 0
--- !u!114 &471287116
MonoBehaviour:
  m_ObjectHideFlags: 0
  m_PrefabParentObject: {fileID: 0}
  m_PrefabInternal: {fileID: 0}
  m_GameObject: {fileID: 471287113}
  m_Enabled: 1
  m_EditorHideFlags: 0
  m_Script: {fileID: 1077351063, guid: f5f67c52d1564df4a8936ccd202a3bd8, type: 3}
  m_Name: 
  m_EditorClassIdentifier: 
  m_HorizontalAxis: Horizontal
  m_VerticalAxis: Vertical
  m_SubmitButton: Submit
  m_CancelButton: Cancel
  m_InputActionsPerSecond: 10
  m_RepeatDelay: 0.5
  m_ForceModuleActive: 0
--- !u!114 &471287117
MonoBehaviour:
  m_ObjectHideFlags: 0
  m_PrefabParentObject: {fileID: 0}
  m_PrefabInternal: {fileID: 0}
  m_GameObject: {fileID: 471287113}
  m_Enabled: 1
  m_EditorHideFlags: 0
  m_Script: {fileID: -619905303, guid: f5f67c52d1564df4a8936ccd202a3bd8, type: 3}
  m_Name: 
  m_EditorClassIdentifier: 
  m_FirstSelected: {fileID: 1260072963}
  m_sendNavigationEvents: 1
  m_DragThreshold: 5
--- !u!4 &471287118
Transform:
  m_ObjectHideFlags: 0
  m_PrefabParentObject: {fileID: 0}
  m_PrefabInternal: {fileID: 0}
  m_GameObject: {fileID: 471287113}
  m_LocalRotation: {x: 0, y: 0, z: 0, w: 1}
  m_LocalPosition: {x: 194.44109, y: 340.70532, z: 0}
  m_LocalScale: {x: 1, y: 1, z: 1}
  m_Children: []
  m_Father: {fileID: 0}
  m_RootOrder: 3
  m_LocalEulerAnglesHint: {x: 0, y: 0, z: 0}
--- !u!1 &557638307
GameObject:
  m_ObjectHideFlags: 0
  m_PrefabParentObject: {fileID: 0}
  m_PrefabInternal: {fileID: 0}
  serializedVersion: 5
  m_Component:
  - component: {fileID: 557638313}
  - component: {fileID: 557638312}
  - component: {fileID: 557638309}
  - component: {fileID: 557638308}
  m_Layer: 5
  m_Name: Canvas
  m_TagString: Untagged
  m_Icon: {fileID: 0}
  m_NavMeshLayer: 0
  m_StaticEditorFlags: 0
  m_IsActive: 1
--- !u!114 &557638308
MonoBehaviour:
  m_ObjectHideFlags: 0
  m_PrefabParentObject: {fileID: 0}
  m_PrefabInternal: {fileID: 0}
  m_GameObject: {fileID: 557638307}
  m_Enabled: 1
  m_EditorHideFlags: 0
  m_Script: {fileID: 1980459831, guid: f5f67c52d1564df4a8936ccd202a3bd8, type: 3}
  m_Name: 
  m_EditorClassIdentifier: 
  m_UiScaleMode: 1
  m_ReferencePixelsPerUnit: 100
  m_ScaleFactor: 1
  m_ReferenceResolution: {x: 800, y: 650}
  m_ScreenMatchMode: 0
  m_MatchWidthOrHeight: 0.55
  m_PhysicalUnit: 3
  m_FallbackScreenDPI: 96
  m_DefaultSpriteDPI: 96
  m_DynamicPixelsPerUnit: 1
--- !u!114 &557638309
MonoBehaviour:
  m_ObjectHideFlags: 0
  m_PrefabParentObject: {fileID: 0}
  m_PrefabInternal: {fileID: 0}
  m_GameObject: {fileID: 557638307}
  m_Enabled: 1
  m_EditorHideFlags: 0
  m_Script: {fileID: 1301386320, guid: f5f67c52d1564df4a8936ccd202a3bd8, type: 3}
  m_Name: 
  m_EditorClassIdentifier: 
  m_IgnoreReversedGraphics: 1
  m_BlockingObjects: 0
  m_BlockingMask:
    serializedVersion: 2
    m_Bits: 4294967295
--- !u!223 &557638312
Canvas:
  m_ObjectHideFlags: 0
  m_PrefabParentObject: {fileID: 0}
  m_PrefabInternal: {fileID: 0}
  m_GameObject: {fileID: 557638307}
  m_Enabled: 1
  serializedVersion: 3
  m_RenderMode: 0
  m_Camera: {fileID: 1676370471}
  m_PlaneDistance: 100
  m_PixelPerfect: 0
  m_ReceivesEvents: 1
  m_OverrideSorting: 0
  m_OverridePixelPerfect: 0
  m_SortingBucketNormalizedSize: 0
  m_AdditionalShaderChannelsFlag: 25
  m_SortingLayerID: 0
  m_SortingOrder: 0
  m_TargetDisplay: 0
--- !u!224 &557638313
RectTransform:
  m_ObjectHideFlags: 0
  m_PrefabParentObject: {fileID: 0}
  m_PrefabInternal: {fileID: 0}
  m_GameObject: {fileID: 557638307}
  m_LocalRotation: {x: 0, y: 0, z: 0, w: 1}
  m_LocalPosition: {x: 315.5, y: 252.5, z: 0}
  m_LocalScale: {x: 0.78222305, y: 0.78222305, z: 0.78222305}
  m_Children:
  - {fileID: 920952692}
  m_Father: {fileID: 0}
  m_RootOrder: 1
  m_LocalEulerAnglesHint: {x: 0, y: 0, z: 0}
  m_AnchorMin: {x: 0, y: 0}
  m_AnchorMax: {x: 0, y: 0}
  m_AnchoredPosition: {x: 0, y: 0}
  m_SizeDelta: {x: 0, y: 0}
  m_Pivot: {x: 0, y: 0}
--- !u!224 &669063900 stripped
RectTransform:
  m_PrefabParentObject: {fileID: 22400004, guid: 8a0cab5ff0a9b465bbc169d7ad27a67f,
    type: 2}
  m_PrefabInternal: {fileID: 1554370096}
--- !u!224 &881739799 stripped
RectTransform:
  m_PrefabParentObject: {fileID: 22400002, guid: a93c012dd9ef6454fa7d140e976926f7,
    type: 2}
  m_PrefabInternal: {fileID: 303246750}
--- !u!1001 &918380940
Prefab:
  m_ObjectHideFlags: 0
  serializedVersion: 2
  m_Modification:
    m_TransformParent: {fileID: 1162401976}
    m_Modifications:
    - target: {fileID: 11400004, guid: 05a81c3d5091440058129444d28322f3, type: 2}
      propertyPath: m_OnClick.m_PersistentCalls.m_Calls.Array.size
      value: 1
      objectReference: {fileID: 0}
    - target: {fileID: 22400004, guid: 05a81c3d5091440058129444d28322f3, type: 2}
      propertyPath: m_LocalPosition.x
      value: 228.97287
      objectReference: {fileID: 0}
    - target: {fileID: 22400004, guid: 05a81c3d5091440058129444d28322f3, type: 2}
      propertyPath: m_LocalPosition.y
      value: 0
      objectReference: {fileID: 0}
    - target: {fileID: 22400004, guid: 05a81c3d5091440058129444d28322f3, type: 2}
      propertyPath: m_LocalPosition.z
      value: 0
      objectReference: {fileID: 0}
    - target: {fileID: 22400004, guid: 05a81c3d5091440058129444d28322f3, type: 2}
      propertyPath: m_LocalRotation.x
      value: 0
      objectReference: {fileID: 0}
    - target: {fileID: 22400004, guid: 05a81c3d5091440058129444d28322f3, type: 2}
      propertyPath: m_LocalRotation.y
      value: 0
      objectReference: {fileID: 0}
    - target: {fileID: 22400004, guid: 05a81c3d5091440058129444d28322f3, type: 2}
      propertyPath: m_LocalRotation.z
      value: 0
      objectReference: {fileID: 0}
    - target: {fileID: 22400004, guid: 05a81c3d5091440058129444d28322f3, type: 2}
      propertyPath: m_LocalRotation.w
      value: 1
      objectReference: {fileID: 0}
    - target: {fileID: 22400004, guid: 05a81c3d5091440058129444d28322f3, type: 2}
      propertyPath: m_RootMapOrder
      value: 1
      objectReference: {fileID: 0}
    - target: {fileID: 22400004, guid: 05a81c3d5091440058129444d28322f3, type: 2}
      propertyPath: m_Position.x
      value: 231.34042
      objectReference: {fileID: 0}
    - target: {fileID: 22400004, guid: 05a81c3d5091440058129444d28322f3, type: 2}
      propertyPath: m_Position.y
      value: -71.3
      objectReference: {fileID: 0}
    - target: {fileID: 22400004, guid: 05a81c3d5091440058129444d28322f3, type: 2}
      propertyPath: m_SizeDelta.x
      value: 137.03372
      objectReference: {fileID: 0}
    - target: {fileID: 22400004, guid: 05a81c3d5091440058129444d28322f3, type: 2}
      propertyPath: m_SizeDelta.y
      value: 60
      objectReference: {fileID: 0}
    - target: {fileID: 22400004, guid: 05a81c3d5091440058129444d28322f3, type: 2}
      propertyPath: m_AnchorMin.x
      value: 0
      objectReference: {fileID: 0}
    - target: {fileID: 22400004, guid: 05a81c3d5091440058129444d28322f3, type: 2}
      propertyPath: m_AnchorMin.y
      value: 1
      objectReference: {fileID: 0}
    - target: {fileID: 22400004, guid: 05a81c3d5091440058129444d28322f3, type: 2}
      propertyPath: m_AnchorMax.x
      value: 0
      objectReference: {fileID: 0}
    - target: {fileID: 22400004, guid: 05a81c3d5091440058129444d28322f3, type: 2}
      propertyPath: m_AnchorMax.y
      value: 1
      objectReference: {fileID: 0}
    - target: {fileID: 22400004, guid: 05a81c3d5091440058129444d28322f3, type: 2}
      propertyPath: m_Pivot.x
      value: 0
      objectReference: {fileID: 0}
    - target: {fileID: 22400004, guid: 05a81c3d5091440058129444d28322f3, type: 2}
      propertyPath: m_Pivot.y
      value: 0
      objectReference: {fileID: 0}
    - target: {fileID: 11400002, guid: 05a81c3d5091440058129444d28322f3, type: 2}
      propertyPath: m_FontData.wrapMode
      value: 0
      objectReference: {fileID: 0}
    - target: {fileID: 22400002, guid: 05a81c3d5091440058129444d28322f3, type: 2}
      propertyPath: m_AnchorMin.x
      value: 0
      objectReference: {fileID: 0}
    - target: {fileID: 22400002, guid: 05a81c3d5091440058129444d28322f3, type: 2}
      propertyPath: m_AnchorMin.y
      value: 1
      objectReference: {fileID: 0}
    - target: {fileID: 22400002, guid: 05a81c3d5091440058129444d28322f3, type: 2}
      propertyPath: m_AnchorMax.x
      value: 0
      objectReference: {fileID: 0}
    - target: {fileID: 22400002, guid: 05a81c3d5091440058129444d28322f3, type: 2}
      propertyPath: m_AnchorMax.y
      value: 1
      objectReference: {fileID: 0}
    - target: {fileID: 22400002, guid: 05a81c3d5091440058129444d28322f3, type: 2}
      propertyPath: m_SizeDelta.x
      value: 37.033714
      objectReference: {fileID: 0}
    - target: {fileID: 22400002, guid: 05a81c3d5091440058129444d28322f3, type: 2}
      propertyPath: m_SizeDelta.y
      value: 35.350365
      objectReference: {fileID: 0}
    - target: {fileID: 22400002, guid: 05a81c3d5091440058129444d28322f3, type: 2}
      propertyPath: m_Position.x
      value: 50
      objectReference: {fileID: 0}
    - target: {fileID: 22400002, guid: 05a81c3d5091440058129444d28322f3, type: 2}
      propertyPath: m_Position.y
      value: -47.675182
      objectReference: {fileID: 0}
    - target: {fileID: 22400002, guid: 05a81c3d5091440058129444d28322f3, type: 2}
      propertyPath: m_Pivot.x
      value: 0
      objectReference: {fileID: 0}
    - target: {fileID: 22400002, guid: 05a81c3d5091440058129444d28322f3, type: 2}
      propertyPath: m_Pivot.y
      value: 0
      objectReference: {fileID: 0}
    - target: {fileID: 22400000, guid: 05a81c3d5091440058129444d28322f3, type: 2}
      propertyPath: m_AnchorMax.x
      value: 0
      objectReference: {fileID: 0}
    - target: {fileID: 22400000, guid: 05a81c3d5091440058129444d28322f3, type: 2}
      propertyPath: m_AnchorMax.y
      value: 1
      objectReference: {fileID: 0}
    - target: {fileID: 22400000, guid: 05a81c3d5091440058129444d28322f3, type: 2}
      propertyPath: m_Pivot.x
      value: 0
      objectReference: {fileID: 0}
    - target: {fileID: 22400000, guid: 05a81c3d5091440058129444d28322f3, type: 2}
      propertyPath: m_Pivot.y
      value: 0
      objectReference: {fileID: 0}
    - target: {fileID: 11400002, guid: 05a81c3d5091440058129444d28322f3, type: 2}
      propertyPath: m_Text
      value: OK
      objectReference: {fileID: 0}
    - target: {fileID: 22400002, guid: 05a81c3d5091440058129444d28322f3, type: 2}
      propertyPath: m_AnchoredPosition.x
      value: 50
      objectReference: {fileID: 0}
    - target: {fileID: 22400002, guid: 05a81c3d5091440058129444d28322f3, type: 2}
      propertyPath: m_AnchoredPosition.y
      value: -47.675182
      objectReference: {fileID: 0}
    - target: {fileID: 22400004, guid: 05a81c3d5091440058129444d28322f3, type: 2}
      propertyPath: m_AnchoredPosition.y
      value: -71.3
      objectReference: {fileID: 0}
    - target: {fileID: 22400000, guid: 05a81c3d5091440058129444d28322f3, type: 2}
      propertyPath: m_AnchorMin.y
      value: 1
      objectReference: {fileID: 0}
    - target: {fileID: 22400000, guid: 05a81c3d5091440058129444d28322f3, type: 2}
      propertyPath: m_AnchoredPosition.y
      value: -60
      objectReference: {fileID: 0}
    - target: {fileID: 22400000, guid: 05a81c3d5091440058129444d28322f3, type: 2}
      propertyPath: m_SizeDelta.x
      value: 137.03372
      objectReference: {fileID: 0}
    - target: {fileID: 22400000, guid: 05a81c3d5091440058129444d28322f3, type: 2}
      propertyPath: m_SizeDelta.y
      value: 60
      objectReference: {fileID: 0}
    - target: {fileID: 22400004, guid: 05a81c3d5091440058129444d28322f3, type: 2}
      propertyPath: m_AnchoredPosition.x
      value: 231.34042
      objectReference: {fileID: 0}
    - target: {fileID: 11400004, guid: 05a81c3d5091440058129444d28322f3, type: 2}
      propertyPath: m_OnClick.m_PersistentCalls.m_Calls.Array.data[0].m_Mode
      value: 5
      objectReference: {fileID: 0}
    - target: {fileID: 11400004, guid: 05a81c3d5091440058129444d28322f3, type: 2}
      propertyPath: m_OnClick.m_PersistentCalls.m_Calls.Array.data[0].m_CallState
      value: 2
      objectReference: {fileID: 0}
    - target: {fileID: 11400004, guid: 05a81c3d5091440058129444d28322f3, type: 2}
      propertyPath: m_OnClick.m_PersistentCalls.m_Calls.Array.data[0].m_Target
      value: 
      objectReference: {fileID: 1861799213}
    - target: {fileID: 11400004, guid: 05a81c3d5091440058129444d28322f3, type: 2}
      propertyPath: m_OnClick.m_PersistentCalls.m_Calls.Array.data[0].m_MethodName
      value: OkBtn
      objectReference: {fileID: 0}
    - target: {fileID: 11400004, guid: 05a81c3d5091440058129444d28322f3, type: 2}
      propertyPath: m_OnClick.m_PersistentCalls.m_Calls.Array.data[0].m_Arguments.m_ObjectArgumentAssemblyTypeName
      value: UnityEngine.Object, UnityEngine
      objectReference: {fileID: 0}
    - target: {fileID: 11400004, guid: 05a81c3d5091440058129444d28322f3, type: 2}
      propertyPath: m_OnClick.m_PersistentCalls.m_Calls.Array.data[0].m_Arguments.m_StringArgument
      value: DifficultyMenu
      objectReference: {fileID: 0}
    - target: {fileID: 11400004, guid: 05a81c3d5091440058129444d28322f3, type: 2}
      propertyPath: m_OnClick.m_PersistentCalls.m_Calls.Array.data[1].m_Mode
      value: 5
      objectReference: {fileID: 0}
    - target: {fileID: 11400004, guid: 05a81c3d5091440058129444d28322f3, type: 2}
      propertyPath: m_OnClick.m_PersistentCalls.m_Calls.Array.data[1].m_CallState
      value: 2
      objectReference: {fileID: 0}
    - target: {fileID: 11400004, guid: 05a81c3d5091440058129444d28322f3, type: 2}
      propertyPath: m_OnClick.m_PersistentCalls.m_Calls.Array.data[1].m_Target
      value: 
      objectReference: {fileID: 1861799213}
    - target: {fileID: 11400004, guid: 05a81c3d5091440058129444d28322f3, type: 2}
      propertyPath: m_OnClick.m_PersistentCalls.m_Calls.Array.data[1].m_MethodName
      value: OkBtn
      objectReference: {fileID: 0}
    - target: {fileID: 11400004, guid: 05a81c3d5091440058129444d28322f3, type: 2}
      propertyPath: m_OnClick.m_PersistentCalls.m_Calls.Array.data[1].m_Arguments.m_ObjectArgumentAssemblyTypeName
      value: UnityEngine.Object, UnityEngine
      objectReference: {fileID: 0}
    - target: {fileID: 11400004, guid: 05a81c3d5091440058129444d28322f3, type: 2}
      propertyPath: m_OnClick.m_PersistentCalls.m_Calls.Array.data[1].m_Arguments.m_StringArgument
      value: ChoiceMenu2
      objectReference: {fileID: 0}
    - target: {fileID: 100004, guid: 05a81c3d5091440058129444d28322f3, type: 2}
      propertyPath: m_Name
      value: Ok
      objectReference: {fileID: 0}
    - target: {fileID: 22400002, guid: 05a81c3d5091440058129444d28322f3, type: 2}
      propertyPath: m_LocalPosition.x
      value: 50
      objectReference: {fileID: 0}
    - target: {fileID: 22400002, guid: 05a81c3d5091440058129444d28322f3, type: 2}
      propertyPath: m_LocalPosition.y
      value: 12.102291
      objectReference: {fileID: 0}
    m_RemovedComponents: []
  m_ParentPrefab: {fileID: 100100000, guid: 05a81c3d5091440058129444d28322f3, type: 2}
  m_IsPrefabParent: 0
--- !u!1 &920952687
GameObject:
  m_ObjectHideFlags: 0
  m_PrefabParentObject: {fileID: 0}
  m_PrefabInternal: {fileID: 0}
  serializedVersion: 5
  m_Component:
  - component: {fileID: 920952692}
  - component: {fileID: 920952691}
  - component: {fileID: 920952690}
  - component: {fileID: 920952689}
  m_Layer: 5
  m_Name: Window
  m_TagString: Untagged
  m_Icon: {fileID: 0}
  m_NavMeshLayer: 0
  m_StaticEditorFlags: 0
  m_IsActive: 1
--- !u!114 &920952689
MonoBehaviour:
  m_ObjectHideFlags: 0
  m_PrefabParentObject: {fileID: 0}
  m_PrefabInternal: {fileID: 0}
  m_GameObject: {fileID: 920952687}
  m_Enabled: 1
  m_EditorHideFlags: 0
  m_Script: {fileID: 11500000, guid: c5b01eb497714c1449cb2df46eb5ac6f, type: 3}
  m_Name: 
  m_EditorClassIdentifier: 
  range: {x: -7, y: -3}
--- !u!114 &920952690
MonoBehaviour:
  m_ObjectHideFlags: 0
  m_PrefabParentObject: {fileID: 0}
  m_PrefabInternal: {fileID: 0}
  m_GameObject: {fileID: 920952687}
  m_Enabled: 1
  m_EditorHideFlags: 0
  m_Script: {fileID: -765806418, guid: f5f67c52d1564df4a8936ccd202a3bd8, type: 3}
  m_Name: 
  m_EditorClassIdentifier: 
  m_Material: {fileID: 0}
  m_Color: {r: 0, g: 0.54901963, b: 1, a: 1}
  m_RaycastTarget: 1
  m_OnCullStateChanged:
    m_PersistentCalls:
      m_Calls: []
    m_TypeName: UnityEngine.UI.MaskableGraphic+CullStateChangedEvent, UnityEngine.UI,
      Version=1.0.0.0, Culture=neutral, PublicKeyToken=null
  m_Sprite: {fileID: 21300000, guid: 6858abb4516aae344881bf286b3aac33, type: 3}
  m_Type: 1
  m_PreserveAspect: 0
  m_FillCenter: 1
  m_FillMethod: 4
  m_FillAmount: 1
  m_FillClockwise: 1
  m_FillOrigin: 0
--- !u!222 &920952691
CanvasRenderer:
  m_ObjectHideFlags: 0
  m_PrefabParentObject: {fileID: 0}
  m_PrefabInternal: {fileID: 0}
  m_GameObject: {fileID: 920952687}
--- !u!224 &920952692
RectTransform:
  m_ObjectHideFlags: 0
  m_PrefabParentObject: {fileID: 0}
  m_PrefabInternal: {fileID: 0}
  m_GameObject: {fileID: 920952687}
  m_LocalRotation: {x: 0, y: 0, z: 0, w: 1}
  m_LocalPosition: {x: 54.849976, y: -7.299988, z: 0}
  m_LocalScale: {x: 0.8, y: 0.8, z: 0.8}
  m_Children:
  - {fileID: 166367678}
  - {fileID: 881739799}
  - {fileID: 1162401976}
  - {fileID: 1861799214}
  m_Father: {fileID: 557638313}
  m_RootOrder: 0
  m_LocalEulerAnglesHint: {x: 0, y: 0, z: 0}
  m_AnchorMin: {x: 0, y: 0}
  m_AnchorMax: {x: 1, y: 1}
  m_AnchoredPosition: {x: 54.84999, y: -7.3}
  m_SizeDelta: {x: -109.7, y: -115.7}
  m_Pivot: {x: 0.5, y: 0.5}
--- !u!1001 &1034769332
Prefab:
  m_ObjectHideFlags: 0
  serializedVersion: 2
  m_Modification:
    m_TransformParent: {fileID: 1925936814}
    m_Modifications:
    - target: {fileID: 11400004, guid: 8a0cab5ff0a9b465bbc169d7ad27a67f, type: 2}
      propertyPath: m_OnClick.m_PersistentCalls.m_Calls.Array.size
      value: 1
      objectReference: {fileID: 0}
    - target: {fileID: 22400004, guid: 8a0cab5ff0a9b465bbc169d7ad27a67f, type: 2}
      propertyPath: m_LocalPosition.x
      value: 398.48764
      objectReference: {fileID: 0}
    - target: {fileID: 22400004, guid: 8a0cab5ff0a9b465bbc169d7ad27a67f, type: 2}
      propertyPath: m_LocalPosition.y
      value: 0
      objectReference: {fileID: 0}
    - target: {fileID: 22400004, guid: 8a0cab5ff0a9b465bbc169d7ad27a67f, type: 2}
      propertyPath: m_LocalPosition.z
      value: 0
      objectReference: {fileID: 0}
    - target: {fileID: 22400004, guid: 8a0cab5ff0a9b465bbc169d7ad27a67f, type: 2}
      propertyPath: m_LocalRotation.x
      value: 0
      objectReference: {fileID: 0}
    - target: {fileID: 22400004, guid: 8a0cab5ff0a9b465bbc169d7ad27a67f, type: 2}
      propertyPath: m_LocalRotation.y
      value: -0.00000008940697
      objectReference: {fileID: 0}
    - target: {fileID: 22400004, guid: 8a0cab5ff0a9b465bbc169d7ad27a67f, type: 2}
      propertyPath: m_LocalRotation.z
      value: 0
      objectReference: {fileID: 0}
    - target: {fileID: 22400004, guid: 8a0cab5ff0a9b465bbc169d7ad27a67f, type: 2}
      propertyPath: m_LocalRotation.w
      value: 1
      objectReference: {fileID: 0}
    - target: {fileID: 22400004, guid: 8a0cab5ff0a9b465bbc169d7ad27a67f, type: 2}
      propertyPath: m_RootMapOrder
      value: 3
      objectReference: {fileID: 0}
    - target: {fileID: 22400004, guid: 8a0cab5ff0a9b465bbc169d7ad27a67f, type: 2}
      propertyPath: m_Position.x
      value: 505.20526
      objectReference: {fileID: 0}
    - target: {fileID: 22400004, guid: 8a0cab5ff0a9b465bbc169d7ad27a67f, type: 2}
      propertyPath: m_Position.y
      value: -100
      objectReference: {fileID: 0}
    - target: {fileID: 22400004, guid: 8a0cab5ff0a9b465bbc169d7ad27a67f, type: 2}
      propertyPath: m_SizeDelta.x
      value: 100
      objectReference: {fileID: 0}
    - target: {fileID: 22400004, guid: 8a0cab5ff0a9b465bbc169d7ad27a67f, type: 2}
      propertyPath: m_SizeDelta.y
      value: 100
      objectReference: {fileID: 0}
    - target: {fileID: 22400004, guid: 8a0cab5ff0a9b465bbc169d7ad27a67f, type: 2}
      propertyPath: m_AnchorMin.x
      value: 0
      objectReference: {fileID: 0}
    - target: {fileID: 22400004, guid: 8a0cab5ff0a9b465bbc169d7ad27a67f, type: 2}
      propertyPath: m_AnchorMin.y
      value: 1
      objectReference: {fileID: 0}
    - target: {fileID: 22400004, guid: 8a0cab5ff0a9b465bbc169d7ad27a67f, type: 2}
      propertyPath: m_AnchorMax.x
      value: 0
      objectReference: {fileID: 0}
    - target: {fileID: 22400004, guid: 8a0cab5ff0a9b465bbc169d7ad27a67f, type: 2}
      propertyPath: m_AnchorMax.y
      value: 1
      objectReference: {fileID: 0}
    - target: {fileID: 11400002, guid: 8a0cab5ff0a9b465bbc169d7ad27a67f, type: 2}
      propertyPath: m_Text
      value: 4
      objectReference: {fileID: 0}
    - target: {fileID: 100004, guid: 8a0cab5ff0a9b465bbc169d7ad27a67f, type: 2}
      propertyPath: m_Name
      value: GridCell-4
      objectReference: {fileID: 0}
    - target: {fileID: 22400004, guid: 8a0cab5ff0a9b465bbc169d7ad27a67f, type: 2}
      propertyPath: m_RootOrder
      value: 3
      objectReference: {fileID: 0}
    - target: {fileID: 22400004, guid: 8a0cab5ff0a9b465bbc169d7ad27a67f, type: 2}
      propertyPath: m_AnchoredPosition.x
      value: 505.20526
      objectReference: {fileID: 0}
    - target: {fileID: 22400004, guid: 8a0cab5ff0a9b465bbc169d7ad27a67f, type: 2}
      propertyPath: m_AnchoredPosition.y
      value: -100
      objectReference: {fileID: 0}
    - target: {fileID: 11400004, guid: 8a0cab5ff0a9b465bbc169d7ad27a67f, type: 2}
      propertyPath: m_OnClick.m_PersistentCalls.m_Calls.Array.data[0].m_Mode
      value: 1
      objectReference: {fileID: 0}
    - target: {fileID: 11400004, guid: 8a0cab5ff0a9b465bbc169d7ad27a67f, type: 2}
      propertyPath: m_OnClick.m_PersistentCalls.m_Calls.Array.data[0].m_CallState
      value: 2
      objectReference: {fileID: 0}
    - target: {fileID: 11400004, guid: 8a0cab5ff0a9b465bbc169d7ad27a67f, type: 2}
      propertyPath: m_OnClick.m_PersistentCalls.m_Calls.Array.data[0].m_Target
      value: 
      objectReference: {fileID: 1861799213}
    - target: {fileID: 11400004, guid: 8a0cab5ff0a9b465bbc169d7ad27a67f, type: 2}
      propertyPath: m_OnClick.m_PersistentCalls.m_Calls.Array.data[0].m_MethodName
      value: FourBtn
      objectReference: {fileID: 0}
    - target: {fileID: 11400004, guid: 8a0cab5ff0a9b465bbc169d7ad27a67f, type: 2}
      propertyPath: m_OnClick.m_PersistentCalls.m_Calls.Array.data[0].m_Arguments.m_ObjectArgumentAssemblyTypeName
      value: UnityEngine.Object, UnityEngine
      objectReference: {fileID: 0}
    m_RemovedComponents: []
  m_ParentPrefab: {fileID: 100100000, guid: 8a0cab5ff0a9b465bbc169d7ad27a67f, type: 2}
  m_IsPrefabParent: 0
--- !u!1 &1162401973
GameObject:
  m_ObjectHideFlags: 0
  m_PrefabParentObject: {fileID: 0}
  m_PrefabInternal: {fileID: 0}
  serializedVersion: 5
  m_Component:
  - component: {fileID: 1162401976}
  - component: {fileID: 1162401975}
  m_Layer: 5
  m_Name: Validation
  m_TagString: Untagged
  m_Icon: {fileID: 0}
  m_NavMeshLayer: 0
  m_StaticEditorFlags: 0
  m_IsActive: 1
--- !u!114 &1162401975
MonoBehaviour:
  m_ObjectHideFlags: 0
  m_PrefabParentObject: {fileID: 0}
  m_PrefabInternal: {fileID: 0}
  m_GameObject: {fileID: 1162401973}
  m_Enabled: 1
  m_EditorHideFlags: 0
  m_Script: {fileID: -405508275, guid: f5f67c52d1564df4a8936ccd202a3bd8, type: 3}
  m_Name: 
  m_EditorClassIdentifier: 
  m_Padding:
    m_Left: 0
    m_Right: 0
    m_Top: 0
    m_Bottom: 0
  m_ChildAlignment: 8
  m_Spacing: 0
  m_ChildForceExpandWidth: 0
  m_ChildForceExpandHeight: 0
  m_ChildControlWidth: 1
  m_ChildControlHeight: 1
--- !u!224 &1162401976
RectTransform:
  m_ObjectHideFlags: 0
  m_PrefabParentObject: {fileID: 0}
  m_PrefabInternal: {fileID: 0}
  m_GameObject: {fileID: 1162401973}
  m_LocalRotation: {x: -0, y: -0, z: -0, w: 1}
  m_LocalPosition: {x: -298.53665, y: -58.052063, z: 0}
  m_LocalScale: {x: 1, y: 1, z: 1}
  m_Children:
  - {fileID: 1997185697}
  - {fileID: 2061030636}
  m_Father: {fileID: 920952692}
  m_RootOrder: 2
  m_LocalEulerAnglesHint: {x: 0, y: 0, z: 0}
  m_AnchorMin: {x: 0, y: 1}
  m_AnchorMax: {x: 0, y: 1}
  m_AnchoredPosition: {x: 49.951, y: -323}
  m_SizeDelta: {x: 551.7, y: 71.3}
  m_Pivot: {x: 0, y: 0}
--- !u!224 &1175094833 stripped
RectTransform:
  m_PrefabParentObject: {fileID: 22400004, guid: 8a0cab5ff0a9b465bbc169d7ad27a67f,
    type: 2}
  m_PrefabInternal: {fileID: 2094753067}
--- !u!1 &1260072963 stripped
GameObject:
  m_PrefabParentObject: {fileID: 100004, guid: 8a0cab5ff0a9b465bbc169d7ad27a67f, type: 2}
  m_PrefabInternal: {fileID: 1639437483}
--- !u!224 &1260072967 stripped
RectTransform:
  m_PrefabParentObject: {fileID: 22400004, guid: 8a0cab5ff0a9b465bbc169d7ad27a67f,
    type: 2}
  m_PrefabInternal: {fileID: 1639437483}
--- !u!1001 &1400699414
Prefab:
  m_ObjectHideFlags: 0
  serializedVersion: 2
  m_Modification:
    m_TransformParent: {fileID: 1162401976}
    m_Modifications:
    - target: {fileID: 11400004, guid: 05a81c3d5091440058129444d28322f3, type: 2}
      propertyPath: m_OnClick.m_PersistentCalls.m_Calls.Array.size
      value: 1
      objectReference: {fileID: 0}
    - target: {fileID: 22400004, guid: 05a81c3d5091440058129444d28322f3, type: 2}
      propertyPath: m_LocalPosition.x
      value: 367.3251
      objectReference: {fileID: 0}
    - target: {fileID: 22400004, guid: 05a81c3d5091440058129444d28322f3, type: 2}
      propertyPath: m_LocalPosition.y
      value: 0
      objectReference: {fileID: 0}
    - target: {fileID: 22400004, guid: 05a81c3d5091440058129444d28322f3, type: 2}
      propertyPath: m_LocalPosition.z
      value: 0
      objectReference: {fileID: 0}
    - target: {fileID: 22400004, guid: 05a81c3d5091440058129444d28322f3, type: 2}
      propertyPath: m_LocalRotation.x
      value: 0
      objectReference: {fileID: 0}
    - target: {fileID: 22400004, guid: 05a81c3d5091440058129444d28322f3, type: 2}
      propertyPath: m_LocalRotation.y
      value: 0
      objectReference: {fileID: 0}
    - target: {fileID: 22400004, guid: 05a81c3d5091440058129444d28322f3, type: 2}
      propertyPath: m_LocalRotation.z
      value: 0
      objectReference: {fileID: 0}
    - target: {fileID: 22400004, guid: 05a81c3d5091440058129444d28322f3, type: 2}
      propertyPath: m_LocalRotation.w
      value: 1
      objectReference: {fileID: 0}
    - target: {fileID: 22400004, guid: 05a81c3d5091440058129444d28322f3, type: 2}
      propertyPath: m_RootMapOrder
      value: 0
      objectReference: {fileID: 0}
    - target: {fileID: 22400004, guid: 05a81c3d5091440058129444d28322f3, type: 2}
      propertyPath: m_Position.x
      value: 368.37415
      objectReference: {fileID: 0}
    - target: {fileID: 22400004, guid: 05a81c3d5091440058129444d28322f3, type: 2}
      propertyPath: m_Position.y
      value: -71.3
      objectReference: {fileID: 0}
    - target: {fileID: 22400004, guid: 05a81c3d5091440058129444d28322f3, type: 2}
      propertyPath: m_SizeDelta.x
      value: 183.32587
      objectReference: {fileID: 0}
    - target: {fileID: 22400004, guid: 05a81c3d5091440058129444d28322f3, type: 2}
      propertyPath: m_SizeDelta.y
      value: 60
      objectReference: {fileID: 0}
    - target: {fileID: 22400004, guid: 05a81c3d5091440058129444d28322f3, type: 2}
      propertyPath: m_AnchorMin.x
      value: 0
      objectReference: {fileID: 0}
    - target: {fileID: 22400004, guid: 05a81c3d5091440058129444d28322f3, type: 2}
      propertyPath: m_AnchorMin.y
      value: 1
      objectReference: {fileID: 0}
    - target: {fileID: 22400004, guid: 05a81c3d5091440058129444d28322f3, type: 2}
      propertyPath: m_AnchorMax.x
      value: 0
      objectReference: {fileID: 0}
    - target: {fileID: 22400004, guid: 05a81c3d5091440058129444d28322f3, type: 2}
      propertyPath: m_AnchorMax.y
      value: 1
      objectReference: {fileID: 0}
    - target: {fileID: 22400004, guid: 05a81c3d5091440058129444d28322f3, type: 2}
      propertyPath: m_Pivot.x
      value: 0
      objectReference: {fileID: 0}
    - target: {fileID: 22400004, guid: 05a81c3d5091440058129444d28322f3, type: 2}
      propertyPath: m_Pivot.y
      value: 0
      objectReference: {fileID: 0}
    - target: {fileID: 22400002, guid: 05a81c3d5091440058129444d28322f3, type: 2}
      propertyPath: m_AnchorMin.x
      value: 0
      objectReference: {fileID: 0}
    - target: {fileID: 22400002, guid: 05a81c3d5091440058129444d28322f3, type: 2}
      propertyPath: m_AnchorMin.y
      value: 1
      objectReference: {fileID: 0}
    - target: {fileID: 22400002, guid: 05a81c3d5091440058129444d28322f3, type: 2}
      propertyPath: m_AnchorMax.x
      value: 0
      objectReference: {fileID: 0}
    - target: {fileID: 22400002, guid: 05a81c3d5091440058129444d28322f3, type: 2}
      propertyPath: m_AnchorMax.y
      value: 1
      objectReference: {fileID: 0}
    - target: {fileID: 22400002, guid: 05a81c3d5091440058129444d28322f3, type: 2}
      propertyPath: m_Position.x
      value: 50
      objectReference: {fileID: 0}
    - target: {fileID: 22400002, guid: 05a81c3d5091440058129444d28322f3, type: 2}
      propertyPath: m_Position.y
      value: -47.675182
      objectReference: {fileID: 0}
    - target: {fileID: 22400000, guid: 05a81c3d5091440058129444d28322f3, type: 2}
      propertyPath: m_LocalPosition.z
      value: -15
      objectReference: {fileID: 0}
    - target: {fileID: 22400000, guid: 05a81c3d5091440058129444d28322f3, type: 2}
      propertyPath: m_AnchorMax.x
      value: 0
      objectReference: {fileID: 0}
    - target: {fileID: 22400002, guid: 05a81c3d5091440058129444d28322f3, type: 2}
      propertyPath: m_SizeDelta.x
      value: 83.32586
      objectReference: {fileID: 0}
    - target: {fileID: 22400002, guid: 05a81c3d5091440058129444d28322f3, type: 2}
      propertyPath: m_SizeDelta.y
      value: 35.350365
      objectReference: {fileID: 0}
    - target: {fileID: 11400002, guid: 05a81c3d5091440058129444d28322f3, type: 2}
      propertyPath: m_FontData.wrapMode
      value: 0
      objectReference: {fileID: 0}
    - target: {fileID: 22400000, guid: 05a81c3d5091440058129444d28322f3, type: 2}
      propertyPath: m_AnchorMin.x
      value: 0
      objectReference: {fileID: 0}
    - target: {fileID: 22400000, guid: 05a81c3d5091440058129444d28322f3, type: 2}
      propertyPath: m_AnchorMin.y
      value: 1
      objectReference: {fileID: 0}
    - target: {fileID: 22400000, guid: 05a81c3d5091440058129444d28322f3, type: 2}
      propertyPath: m_AnchorMax.y
      value: 1
      objectReference: {fileID: 0}
    - target: {fileID: 22400000, guid: 05a81c3d5091440058129444d28322f3, type: 2}
      propertyPath: m_Position.x
      value: 0
      objectReference: {fileID: 0}
    - target: {fileID: 22400000, guid: 05a81c3d5091440058129444d28322f3, type: 2}
      propertyPath: m_SizeDelta.y
      value: 60
      objectReference: {fileID: 0}
    - target: {fileID: 22400002, guid: 05a81c3d5091440058129444d28322f3, type: 2}
      propertyPath: m_Pivot.x
      value: 0
      objectReference: {fileID: 0}
    - target: {fileID: 22400002, guid: 05a81c3d5091440058129444d28322f3, type: 2}
      propertyPath: m_Pivot.y
      value: 0
      objectReference: {fileID: 0}
    - target: {fileID: 11400004, guid: 05a81c3d5091440058129444d28322f3, type: 2}
      propertyPath: m_OnClick.m_PersistentCalls.m_Calls.Array.data[0].m_Mode
      value: 5
      objectReference: {fileID: 0}
    - target: {fileID: 11400004, guid: 05a81c3d5091440058129444d28322f3, type: 2}
      propertyPath: m_OnClick.m_PersistentCalls.m_Calls.Array.data[0].m_Enabled
      value: 1
      objectReference: {fileID: 0}
    - target: {fileID: 22400000, guid: 05a81c3d5091440058129444d28322f3, type: 2}
      propertyPath: m_Pivot.x
      value: 0
      objectReference: {fileID: 0}
    - target: {fileID: 22400000, guid: 05a81c3d5091440058129444d28322f3, type: 2}
      propertyPath: m_Pivot.y
      value: 0
      objectReference: {fileID: 0}
    - target: {fileID: 11400002, guid: 05a81c3d5091440058129444d28322f3, type: 2}
      propertyPath: m_Text
      value: Cancel
      objectReference: {fileID: 0}
    - target: {fileID: 22400002, guid: 05a81c3d5091440058129444d28322f3, type: 2}
      propertyPath: m_AnchoredPosition.x
      value: 50
      objectReference: {fileID: 0}
    - target: {fileID: 22400002, guid: 05a81c3d5091440058129444d28322f3, type: 2}
      propertyPath: m_AnchoredPosition.y
      value: -47.675182
      objectReference: {fileID: 0}
    - target: {fileID: 22400004, guid: 05a81c3d5091440058129444d28322f3, type: 2}
      propertyPath: m_AnchoredPosition.y
      value: -71.3
      objectReference: {fileID: 0}
    - target: {fileID: 22400000, guid: 05a81c3d5091440058129444d28322f3, type: 2}
      propertyPath: m_AnchoredPosition.y
      value: -60
      objectReference: {fileID: 0}
    - target: {fileID: 22400000, guid: 05a81c3d5091440058129444d28322f3, type: 2}
      propertyPath: m_SizeDelta.x
      value: 183.32587
      objectReference: {fileID: 0}
    - target: {fileID: 22400004, guid: 05a81c3d5091440058129444d28322f3, type: 2}
      propertyPath: m_RootOrder
      value: 1
      objectReference: {fileID: 0}
    - target: {fileID: 22400004, guid: 05a81c3d5091440058129444d28322f3, type: 2}
      propertyPath: m_AnchoredPosition.x
      value: 368.37415
      objectReference: {fileID: 0}
    - target: {fileID: 11400004, guid: 05a81c3d5091440058129444d28322f3, type: 2}
      propertyPath: m_OnClick.m_PersistentCalls.m_Calls.Array.data[0].m_CallState
      value: 2
      objectReference: {fileID: 0}
    - target: {fileID: 11400004, guid: 05a81c3d5091440058129444d28322f3, type: 2}
      propertyPath: m_OnClick.m_PersistentCalls.m_Calls.Array.data[0].m_Target
      value: 
      objectReference: {fileID: 1861799213}
    - target: {fileID: 11400004, guid: 05a81c3d5091440058129444d28322f3, type: 2}
      propertyPath: m_OnClick.m_PersistentCalls.m_Calls.Array.data[0].m_MethodName
      value: CancelBtn
      objectReference: {fileID: 0}
    - target: {fileID: 11400004, guid: 05a81c3d5091440058129444d28322f3, type: 2}
      propertyPath: m_OnClick.m_PersistentCalls.m_Calls.Array.data[0].m_Arguments.m_ObjectArgumentAssemblyTypeName
      value: UnityEngine.Object, UnityEngine
      objectReference: {fileID: 0}
    - target: {fileID: 11400004, guid: 05a81c3d5091440058129444d28322f3, type: 2}
      propertyPath: m_OnClick.m_PersistentCalls.m_Calls.Array.data[0].m_Arguments.m_StringArgument
      value: MainMenu
      objectReference: {fileID: 0}
    - target: {fileID: 100004, guid: 05a81c3d5091440058129444d28322f3, type: 2}
      propertyPath: m_Name
      value: Cancel
      objectReference: {fileID: 0}
    - target: {fileID: 22400002, guid: 05a81c3d5091440058129444d28322f3, type: 2}
      propertyPath: m_LocalPosition.x
      value: 50
      objectReference: {fileID: 0}
    - target: {fileID: 22400002, guid: 05a81c3d5091440058129444d28322f3, type: 2}
      propertyPath: m_LocalPosition.y
      value: 12.102291
      objectReference: {fileID: 0}
    m_RemovedComponents: []
  m_ParentPrefab: {fileID: 100100000, guid: 05a81c3d5091440058129444d28322f3, type: 2}
  m_IsPrefabParent: 0
--- !u!1001 &1554370096
Prefab:
  m_ObjectHideFlags: 0
  serializedVersion: 2
  m_Modification:
    m_TransformParent: {fileID: 1925936814}
    m_Modifications:
    - target: {fileID: 11400004, guid: 8a0cab5ff0a9b465bbc169d7ad27a67f, type: 2}
      propertyPath: m_OnClick.m_PersistentCalls.m_Calls.Array.size
      value: 1
      objectReference: {fileID: 0}
    - target: {fileID: 22400004, guid: 8a0cab5ff0a9b465bbc169d7ad27a67f, type: 2}
      propertyPath: m_LocalPosition.x
      value: 198.48764
      objectReference: {fileID: 0}
    - target: {fileID: 22400004, guid: 8a0cab5ff0a9b465bbc169d7ad27a67f, type: 2}
      propertyPath: m_LocalPosition.y
      value: 0
      objectReference: {fileID: 0}
    - target: {fileID: 22400004, guid: 8a0cab5ff0a9b465bbc169d7ad27a67f, type: 2}
      propertyPath: m_LocalPosition.z
      value: 0
      objectReference: {fileID: 0}
    - target: {fileID: 22400004, guid: 8a0cab5ff0a9b465bbc169d7ad27a67f, type: 2}
      propertyPath: m_LocalRotation.x
      value: 0
      objectReference: {fileID: 0}
    - target: {fileID: 22400004, guid: 8a0cab5ff0a9b465bbc169d7ad27a67f, type: 2}
      propertyPath: m_LocalRotation.y
      value: -0.00000008940697
      objectReference: {fileID: 0}
    - target: {fileID: 22400004, guid: 8a0cab5ff0a9b465bbc169d7ad27a67f, type: 2}
      propertyPath: m_LocalRotation.z
      value: 0
      objectReference: {fileID: 0}
    - target: {fileID: 22400004, guid: 8a0cab5ff0a9b465bbc169d7ad27a67f, type: 2}
      propertyPath: m_LocalRotation.w
      value: 1
      objectReference: {fileID: 0}
    - target: {fileID: 22400004, guid: 8a0cab5ff0a9b465bbc169d7ad27a67f, type: 2}
      propertyPath: m_RootMapOrder
      value: 1
      objectReference: {fileID: 0}
    - target: {fileID: 22400004, guid: 8a0cab5ff0a9b465bbc169d7ad27a67f, type: 2}
      propertyPath: m_Position.x
      value: 305.20526
      objectReference: {fileID: 0}
    - target: {fileID: 22400004, guid: 8a0cab5ff0a9b465bbc169d7ad27a67f, type: 2}
      propertyPath: m_Position.y
      value: -100
      objectReference: {fileID: 0}
    - target: {fileID: 22400004, guid: 8a0cab5ff0a9b465bbc169d7ad27a67f, type: 2}
      propertyPath: m_SizeDelta.x
      value: 100
      objectReference: {fileID: 0}
    - target: {fileID: 22400004, guid: 8a0cab5ff0a9b465bbc169d7ad27a67f, type: 2}
      propertyPath: m_SizeDelta.y
      value: 100
      objectReference: {fileID: 0}
    - target: {fileID: 22400004, guid: 8a0cab5ff0a9b465bbc169d7ad27a67f, type: 2}
      propertyPath: m_AnchorMin.x
      value: 0
      objectReference: {fileID: 0}
    - target: {fileID: 22400004, guid: 8a0cab5ff0a9b465bbc169d7ad27a67f, type: 2}
      propertyPath: m_AnchorMin.y
      value: 1
      objectReference: {fileID: 0}
    - target: {fileID: 22400004, guid: 8a0cab5ff0a9b465bbc169d7ad27a67f, type: 2}
      propertyPath: m_AnchorMax.x
      value: 0
      objectReference: {fileID: 0}
    - target: {fileID: 22400004, guid: 8a0cab5ff0a9b465bbc169d7ad27a67f, type: 2}
      propertyPath: m_AnchorMax.y
      value: 1
      objectReference: {fileID: 0}
    - target: {fileID: 11400002, guid: 8a0cab5ff0a9b465bbc169d7ad27a67f, type: 2}
      propertyPath: m_Text
      value: 2
      objectReference: {fileID: 0}
    - target: {fileID: 100004, guid: 8a0cab5ff0a9b465bbc169d7ad27a67f, type: 2}
      propertyPath: m_Name
      value: GridCell-2
      objectReference: {fileID: 0}
    - target: {fileID: 22400004, guid: 8a0cab5ff0a9b465bbc169d7ad27a67f, type: 2}
      propertyPath: m_RootOrder
      value: 1
      objectReference: {fileID: 0}
    - target: {fileID: 22400004, guid: 8a0cab5ff0a9b465bbc169d7ad27a67f, type: 2}
      propertyPath: m_AnchoredPosition.x
      value: 305.20526
      objectReference: {fileID: 0}
    - target: {fileID: 22400004, guid: 8a0cab5ff0a9b465bbc169d7ad27a67f, type: 2}
      propertyPath: m_AnchoredPosition.y
      value: -100
      objectReference: {fileID: 0}
    - target: {fileID: 11400004, guid: 8a0cab5ff0a9b465bbc169d7ad27a67f, type: 2}
      propertyPath: m_OnClick.m_PersistentCalls.m_Calls.Array.data[0].m_Mode
      value: 1
      objectReference: {fileID: 0}
    - target: {fileID: 11400004, guid: 8a0cab5ff0a9b465bbc169d7ad27a67f, type: 2}
      propertyPath: m_OnClick.m_PersistentCalls.m_Calls.Array.data[0].m_CallState
      value: 2
      objectReference: {fileID: 0}
    - target: {fileID: 11400004, guid: 8a0cab5ff0a9b465bbc169d7ad27a67f, type: 2}
      propertyPath: m_OnClick.m_PersistentCalls.m_Calls.Array.data[0].m_Target
      value: 
      objectReference: {fileID: 1861799213}
    - target: {fileID: 11400004, guid: 8a0cab5ff0a9b465bbc169d7ad27a67f, type: 2}
      propertyPath: m_OnClick.m_PersistentCalls.m_Calls.Array.data[0].m_MethodName
      value: TwoBtn
      objectReference: {fileID: 0}
    - target: {fileID: 11400004, guid: 8a0cab5ff0a9b465bbc169d7ad27a67f, type: 2}
      propertyPath: m_OnClick.m_PersistentCalls.m_Calls.Array.data[0].m_Arguments.m_ObjectArgumentAssemblyTypeName
      value: UnityEngine.Object, UnityEngine
      objectReference: {fileID: 0}
    m_RemovedComponents: []
  m_ParentPrefab: {fileID: 100100000, guid: 8a0cab5ff0a9b465bbc169d7ad27a67f, type: 2}
  m_IsPrefabParent: 0
--- !u!1 &1595043720 stripped
GameObject:
  m_PrefabParentObject: {fileID: 100000, guid: 05a81c3d5091440058129444d28322f3, type: 2}
  m_PrefabInternal: {fileID: 1400699414}
--- !u!114 &1595043722
MonoBehaviour:
  m_ObjectHideFlags: 0
  m_PrefabParentObject: {fileID: 0}
  m_PrefabInternal: {fileID: 0}
  m_GameObject: {fileID: 1595043720}
  m_Enabled: 1
  m_EditorHideFlags: 0
  m_Script: {fileID: -405508275, guid: f5f67c52d1564df4a8936ccd202a3bd8, type: 3}
  m_Name: 
  m_EditorClassIdentifier: 
  m_Padding:
    m_Left: 50
    m_Right: 50
    m_Top: 0
    m_Bottom: 0
  m_ChildAlignment: 4
  m_Spacing: 0
  m_ChildForceExpandWidth: 0
  m_ChildForceExpandHeight: 0
  m_ChildControlWidth: 1
  m_ChildControlHeight: 1
--- !u!1001 &1639437483
Prefab:
  m_ObjectHideFlags: 0
  serializedVersion: 2
  m_Modification:
    m_TransformParent: {fileID: 1925936814}
    m_Modifications:
    - target: {fileID: 11400004, guid: 8a0cab5ff0a9b465bbc169d7ad27a67f, type: 2}
      propertyPath: m_OnClick.m_PersistentCalls.m_Calls.Array.size
      value: 1
      objectReference: {fileID: 0}
    - target: {fileID: 22400004, guid: 8a0cab5ff0a9b465bbc169d7ad27a67f, type: 2}
      propertyPath: m_LocalPosition.x
      value: 98.48764
      objectReference: {fileID: 0}
    - target: {fileID: 22400004, guid: 8a0cab5ff0a9b465bbc169d7ad27a67f, type: 2}
      propertyPath: m_LocalPosition.y
      value: 0
      objectReference: {fileID: 0}
    - target: {fileID: 22400004, guid: 8a0cab5ff0a9b465bbc169d7ad27a67f, type: 2}
      propertyPath: m_LocalPosition.z
      value: 0
      objectReference: {fileID: 0}
    - target: {fileID: 22400004, guid: 8a0cab5ff0a9b465bbc169d7ad27a67f, type: 2}
      propertyPath: m_LocalRotation.x
      value: 0.00000010617075
      objectReference: {fileID: 0}
    - target: {fileID: 22400004, guid: 8a0cab5ff0a9b465bbc169d7ad27a67f, type: 2}
      propertyPath: m_LocalRotation.y
      value: -0.0000002682209
      objectReference: {fileID: 0}
    - target: {fileID: 22400004, guid: 8a0cab5ff0a9b465bbc169d7ad27a67f, type: 2}
      propertyPath: m_LocalRotation.z
      value: -0.00000028451902
      objectReference: {fileID: 0}
    - target: {fileID: 22400004, guid: 8a0cab5ff0a9b465bbc169d7ad27a67f, type: 2}
      propertyPath: m_LocalRotation.w
      value: 1
      objectReference: {fileID: 0}
    - target: {fileID: 22400004, guid: 8a0cab5ff0a9b465bbc169d7ad27a67f, type: 2}
      propertyPath: m_RootMapOrder
      value: 0
      objectReference: {fileID: 0}
    - target: {fileID: 22400004, guid: 8a0cab5ff0a9b465bbc169d7ad27a67f, type: 2}
      propertyPath: m_Position.x
      value: 205.20526
      objectReference: {fileID: 0}
    - target: {fileID: 22400004, guid: 8a0cab5ff0a9b465bbc169d7ad27a67f, type: 2}
      propertyPath: m_Position.y
      value: -100
      objectReference: {fileID: 0}
    - target: {fileID: 22400004, guid: 8a0cab5ff0a9b465bbc169d7ad27a67f, type: 2}
      propertyPath: m_SizeDelta.x
      value: 100
      objectReference: {fileID: 0}
    - target: {fileID: 22400004, guid: 8a0cab5ff0a9b465bbc169d7ad27a67f, type: 2}
      propertyPath: m_SizeDelta.y
      value: 100
      objectReference: {fileID: 0}
    - target: {fileID: 22400004, guid: 8a0cab5ff0a9b465bbc169d7ad27a67f, type: 2}
      propertyPath: m_AnchorMin.x
      value: 0
      objectReference: {fileID: 0}
    - target: {fileID: 22400004, guid: 8a0cab5ff0a9b465bbc169d7ad27a67f, type: 2}
      propertyPath: m_AnchorMin.y
      value: 1
      objectReference: {fileID: 0}
    - target: {fileID: 22400004, guid: 8a0cab5ff0a9b465bbc169d7ad27a67f, type: 2}
      propertyPath: m_AnchorMax.x
      value: 0
      objectReference: {fileID: 0}
    - target: {fileID: 22400004, guid: 8a0cab5ff0a9b465bbc169d7ad27a67f, type: 2}
      propertyPath: m_AnchorMax.y
      value: 1
      objectReference: {fileID: 0}
    - target: {fileID: 11400002, guid: 8a0cab5ff0a9b465bbc169d7ad27a67f, type: 2}
      propertyPath: m_Text
      value: 1
      objectReference: {fileID: 0}
    - target: {fileID: 100004, guid: 8a0cab5ff0a9b465bbc169d7ad27a67f, type: 2}
      propertyPath: m_Name
      value: GridCell-1
      objectReference: {fileID: 0}
    - target: {fileID: 22400004, guid: 8a0cab5ff0a9b465bbc169d7ad27a67f, type: 2}
      propertyPath: m_RootOrder
      value: 0
      objectReference: {fileID: 0}
    - target: {fileID: 22400004, guid: 8a0cab5ff0a9b465bbc169d7ad27a67f, type: 2}
      propertyPath: m_AnchoredPosition.x
      value: 205.20526
      objectReference: {fileID: 0}
    - target: {fileID: 22400004, guid: 8a0cab5ff0a9b465bbc169d7ad27a67f, type: 2}
      propertyPath: m_AnchoredPosition.y
      value: -100
      objectReference: {fileID: 0}
    - target: {fileID: 11400004, guid: 8a0cab5ff0a9b465bbc169d7ad27a67f, type: 2}
      propertyPath: m_OnClick.m_PersistentCalls.m_Calls.Array.data[0].m_Mode
      value: 1
      objectReference: {fileID: 0}
    - target: {fileID: 11400004, guid: 8a0cab5ff0a9b465bbc169d7ad27a67f, type: 2}
      propertyPath: m_OnClick.m_PersistentCalls.m_Calls.Array.data[0].m_CallState
      value: 2
      objectReference: {fileID: 0}
    - target: {fileID: 11400004, guid: 8a0cab5ff0a9b465bbc169d7ad27a67f, type: 2}
      propertyPath: m_OnClick.m_PersistentCalls.m_Calls.Array.data[0].m_Target
      value: 
      objectReference: {fileID: 1861799213}
    - target: {fileID: 11400004, guid: 8a0cab5ff0a9b465bbc169d7ad27a67f, type: 2}
      propertyPath: m_OnClick.m_PersistentCalls.m_Calls.Array.data[0].m_MethodName
      value: OneBtn
      objectReference: {fileID: 0}
    - target: {fileID: 11400004, guid: 8a0cab5ff0a9b465bbc169d7ad27a67f, type: 2}
      propertyPath: m_OnClick.m_PersistentCalls.m_Calls.Array.data[0].m_Arguments.m_ObjectArgumentAssemblyTypeName
      value: UnityEngine.Object, UnityEngine
      objectReference: {fileID: 0}
    m_RemovedComponents: []
  m_ParentPrefab: {fileID: 100100000, guid: 8a0cab5ff0a9b465bbc169d7ad27a67f, type: 2}
  m_IsPrefabParent: 0
--- !u!1 &1676370470
GameObject:
  m_ObjectHideFlags: 0
  m_PrefabParentObject: {fileID: 0}
  m_PrefabInternal: {fileID: 0}
  serializedVersion: 5
  m_Component:
  - component: {fileID: 1676370472}
  - component: {fileID: 1676370471}
  m_Layer: 0
  m_Name: GUI Camera
  m_TagString: Untagged
  m_Icon: {fileID: 0}
  m_NavMeshLayer: 0
  m_StaticEditorFlags: 0
  m_IsActive: 1
--- !u!20 &1676370471
Camera:
  m_ObjectHideFlags: 0
  m_PrefabParentObject: {fileID: 0}
  m_PrefabInternal: {fileID: 0}
  m_GameObject: {fileID: 1676370470}
  m_Enabled: 1
  serializedVersion: 2
  m_ClearFlags: 4
  m_BackGroundColor: {r: 0.19215687, g: 0.3019608, b: 0.4745098, a: 0.019607844}
  m_NormalizedViewPortRect:
    serializedVersion: 2
    x: 0
    y: 0
    width: 1
    height: 1
  near clip plane: 0.3
  far clip plane: 1000
  field of view: 40
  orthographic: 0
  orthographic size: 5
  m_Depth: 1
  m_CullingMask:
    serializedVersion: 2
    m_Bits: 32
  m_RenderingPath: -1
  m_TargetTexture: {fileID: 0}
  m_TargetDisplay: 0
  m_TargetEye: 3
  m_HDR: 0
  m_AllowMSAA: 1
  m_ForceIntoRT: 0
  m_OcclusionCulling: 1
  m_StereoConvergence: 10
  m_StereoSeparation: 0.022
--- !u!4 &1676370472
Transform:
  m_ObjectHideFlags: 0
  m_PrefabParentObject: {fileID: 0}
  m_PrefabInternal: {fileID: 0}
  m_GameObject: {fileID: 1676370470}
  m_LocalRotation: {x: 0, y: 0, z: 0, w: 1}
  m_LocalPosition: {x: 0, y: 0, z: -100}
  m_LocalScale: {x: 1, y: 1, z: 1}
  m_Children: []
  m_Father: {fileID: 0}
  m_RootOrder: 2
  m_LocalEulerAnglesHint: {x: 0, y: 0, z: 0}
--- !u!1001 &1733671433
Prefab:
  m_ObjectHideFlags: 0
  serializedVersion: 2
  m_Modification:
    m_TransformParent: {fileID: 0}
    m_Modifications:
    - target: {fileID: 400000, guid: 7461a7b0cf97947fd9b9e4502fd2d07b, type: 2}
      propertyPath: m_LocalPosition.x
      value: 0
      objectReference: {fileID: 0}
    - target: {fileID: 400000, guid: 7461a7b0cf97947fd9b9e4502fd2d07b, type: 2}
      propertyPath: m_LocalPosition.y
      value: 0
      objectReference: {fileID: 0}
    - target: {fileID: 400000, guid: 7461a7b0cf97947fd9b9e4502fd2d07b, type: 2}
      propertyPath: m_LocalPosition.z
      value: 0
      objectReference: {fileID: 0}
    - target: {fileID: 400000, guid: 7461a7b0cf97947fd9b9e4502fd2d07b, type: 2}
      propertyPath: m_LocalRotation.x
      value: 0
      objectReference: {fileID: 0}
    - target: {fileID: 400000, guid: 7461a7b0cf97947fd9b9e4502fd2d07b, type: 2}
      propertyPath: m_LocalRotation.y
      value: 0
      objectReference: {fileID: 0}
    - target: {fileID: 400000, guid: 7461a7b0cf97947fd9b9e4502fd2d07b, type: 2}
      propertyPath: m_LocalRotation.z
      value: 0
      objectReference: {fileID: 0}
    - target: {fileID: 400000, guid: 7461a7b0cf97947fd9b9e4502fd2d07b, type: 2}
      propertyPath: m_LocalRotation.w
      value: 1
      objectReference: {fileID: 0}
    - target: {fileID: 400000, guid: 7461a7b0cf97947fd9b9e4502fd2d07b, type: 2}
      propertyPath: m_RootMapOrder
      value: 2
      objectReference: {fileID: 0}
    m_RemovedComponents: []
  m_ParentPrefab: {fileID: 100100000, guid: 7461a7b0cf97947fd9b9e4502fd2d07b, type: 2}
  m_IsPrefabParent: 0
--- !u!1 &1804240037 stripped
GameObject:
  m_PrefabParentObject: {fileID: 100000, guid: 05a81c3d5091440058129444d28322f3, type: 2}
  m_PrefabInternal: {fileID: 918380940}
--- !u!114 &1804240041
MonoBehaviour:
  m_ObjectHideFlags: 0
  m_PrefabParentObject: {fileID: 0}
  m_PrefabInternal: {fileID: 0}
  m_GameObject: {fileID: 1804240037}
  m_Enabled: 1
  m_EditorHideFlags: 0
  m_Script: {fileID: -405508275, guid: f5f67c52d1564df4a8936ccd202a3bd8, type: 3}
  m_Name: 
  m_EditorClassIdentifier: 
  m_Padding:
    m_Left: 50
    m_Right: 50
    m_Top: 0
    m_Bottom: 0
  m_ChildAlignment: 4
  m_Spacing: 0
  m_ChildForceExpandWidth: 0
  m_ChildForceExpandHeight: 0
  m_ChildControlWidth: 1
  m_ChildControlHeight: 1
--- !u!1 &1861799212
GameObject:
  m_ObjectHideFlags: 0
  m_PrefabParentObject: {fileID: 0}
  m_PrefabInternal: {fileID: 0}
  serializedVersion: 5
  m_Component:
  - component: {fileID: 1861799214}
  - component: {fileID: 1861799213}
  m_Layer: 5
  m_Name: ButtonManager
  m_TagString: Untagged
  m_Icon: {fileID: 0}
  m_NavMeshLayer: 0
  m_StaticEditorFlags: 0
  m_IsActive: 1
--- !u!114 &1861799213
MonoBehaviour:
  m_ObjectHideFlags: 0
  m_PrefabParentObject: {fileID: 0}
  m_PrefabInternal: {fileID: 0}
  m_GameObject: {fileID: 1861799212}
  m_Enabled: 1
  m_EditorHideFlags: 0
  m_Script: {fileID: 11500000, guid: 7acfb15aea466ea4a81eb9140755ac95, type: 3}
  m_Name: 
  m_EditorClassIdentifier: 
--- !u!224 &1861799214
RectTransform:
  m_ObjectHideFlags: 0
  m_PrefabParentObject: {fileID: 0}
  m_PrefabInternal: {fileID: 0}
  m_GameObject: {fileID: 1861799212}
  m_LocalRotation: {x: 0, y: 0, z: 0, w: 1}
  m_LocalPosition: {x: 0, y: 0, z: 0}
  m_LocalScale: {x: 1, y: 1, z: 1}
  m_Children: []
  m_Father: {fileID: 920952692}
  m_RootOrder: 3
  m_LocalEulerAnglesHint: {x: 0, y: 0, z: 0}
  m_AnchorMin: {x: 0.5, y: 0.5}
  m_AnchorMax: {x: 0.5, y: 0.5}
  m_AnchoredPosition: {x: 0, y: 0}
  m_SizeDelta: {x: 100, y: 100}
  m_Pivot: {x: 0.5, y: 0.5}
--- !u!1 &1925936811
GameObject:
  m_ObjectHideFlags: 0
  m_PrefabParentObject: {fileID: 0}
  m_PrefabInternal: {fileID: 0}
  serializedVersion: 5
  m_Component:
  - component: {fileID: 1925936814}
  - component: {fileID: 1925936813}
  - component: {fileID: 1925936812}
  m_Layer: 5
  m_Name: Grid
  m_TagString: Untagged
  m_Icon: {fileID: 0}
  m_NavMeshLayer: 0
  m_StaticEditorFlags: 0
  m_IsActive: 1
--- !u!114 &1925936812
MonoBehaviour:
  m_ObjectHideFlags: 0
  m_PrefabParentObject: {fileID: 0}
  m_PrefabInternal: {fileID: 0}
  m_GameObject: {fileID: 1925936811}
  m_Enabled: 1
  m_EditorHideFlags: 0
  m_Script: {fileID: 1679637790, guid: f5f67c52d1564df4a8936ccd202a3bd8, type: 3}
  m_Name: 
  m_EditorClassIdentifier: 
  m_IgnoreLayout: 0
  m_MinWidth: -1
  m_MinHeight: -1
  m_PreferredWidth: -1
  m_PreferredHeight: -1
  m_FlexibleWidth: -1
  m_FlexibleHeight: 1
  m_LayoutPriority: 1
--- !u!114 &1925936813
MonoBehaviour:
  m_ObjectHideFlags: 0
  m_PrefabParentObject: {fileID: 0}
  m_PrefabInternal: {fileID: 0}
  m_GameObject: {fileID: 1925936811}
  m_Enabled: 1
  m_EditorHideFlags: 0
  m_Script: {fileID: -2095666955, guid: f5f67c52d1564df4a8936ccd202a3bd8, type: 3}
  m_Name: 
  m_EditorClassIdentifier: 
  m_Padding:
    m_Left: 0
    m_Right: 0
    m_Top: 0
    m_Bottom: 0
  m_ChildAlignment: 1
  m_StartCorner: 0
  m_StartAxis: 0
  m_CellSize: {x: 100, y: 100}
  m_Spacing: {x: 0, y: 0}
  m_Constraint: 0
  m_ConstraintCount: 2
--- !u!224 &1925936814
RectTransform:
  m_ObjectHideFlags: 0
  m_PrefabParentObject: {fileID: 0}
  m_PrefabInternal: {fileID: 0}
  m_GameObject: {fileID: 1925936811}
  m_LocalRotation: {x: 0, y: 0, z: 0, w: 1}
  m_LocalPosition: {x: -298.48764, y: -147.89206, z: 0}
  m_LocalScale: {x: 1, y: 1, z: 1}
  m_Children:
  - {fileID: 1260072967}
  - {fileID: 669063900}
  - {fileID: 1175094833}
  - {fileID: 155152905}
  m_Father: {fileID: 166367678}
  m_RootOrder: 0
  m_LocalEulerAnglesHint: {x: 0, y: 0, z: 0}
  m_AnchorMin: {x: 0, y: 0}
  m_AnchorMax: {x: 0, y: 0}
  m_AnchoredPosition: {x: 0, y: 0}
  m_SizeDelta: {x: 0, y: 0}
  m_Pivot: {x: 0, y: 0}
--- !u!1 &1997185692 stripped
GameObject:
  m_PrefabParentObject: {fileID: 100004, guid: 05a81c3d5091440058129444d28322f3, type: 2}
  m_PrefabInternal: {fileID: 918380940}
--- !u!114 &1997185694
MonoBehaviour:
  m_ObjectHideFlags: 0
  m_PrefabParentObject: {fileID: 0}
  m_PrefabInternal: {fileID: 0}
  m_GameObject: {fileID: 1997185692}
  m_Enabled: 1
  m_EditorHideFlags: 0
  m_Script: {fileID: -405508275, guid: f5f67c52d1564df4a8936ccd202a3bd8, type: 3}
  m_Name: 
  m_EditorClassIdentifier: 
  m_Padding:
    m_Left: 0
    m_Right: 0
    m_Top: 0
    m_Bottom: 0
  m_ChildAlignment: 1
  m_Spacing: 0
  m_ChildForceExpandWidth: 0
  m_ChildForceExpandHeight: 0
  m_ChildControlWidth: 1
  m_ChildControlHeight: 1
--- !u!224 &1997185697 stripped
RectTransform:
  m_PrefabParentObject: {fileID: 22400004, guid: 05a81c3d5091440058129444d28322f3,
    type: 2}
  m_PrefabInternal: {fileID: 918380940}
--- !u!1 &2061030631 stripped
GameObject:
  m_PrefabParentObject: {fileID: 100004, guid: 05a81c3d5091440058129444d28322f3, type: 2}
  m_PrefabInternal: {fileID: 1400699414}
--- !u!114 &2061030633
MonoBehaviour:
  m_ObjectHideFlags: 0
  m_PrefabParentObject: {fileID: 0}
  m_PrefabInternal: {fileID: 0}
  m_GameObject: {fileID: 2061030631}
  m_Enabled: 1
  m_EditorHideFlags: 0
  m_Script: {fileID: -405508275, guid: f5f67c52d1564df4a8936ccd202a3bd8, type: 3}
  m_Name: 
  m_EditorClassIdentifier: 
  m_Padding:
    m_Left: 0
    m_Right: 0
    m_Top: 0
    m_Bottom: 0
  m_ChildAlignment: 0
  m_Spacing: 0
  m_ChildForceExpandWidth: 0
  m_ChildForceExpandHeight: 0
  m_ChildControlWidth: 1
  m_ChildControlHeight: 1
--- !u!224 &2061030636 stripped
RectTransform:
  m_PrefabParentObject: {fileID: 22400004, guid: 05a81c3d5091440058129444d28322f3,
    type: 2}
  m_PrefabInternal: {fileID: 1400699414}
--- !u!1001 &2094753067
Prefab:
  m_ObjectHideFlags: 0
  serializedVersion: 2
  m_Modification:
    m_TransformParent: {fileID: 1925936814}
    m_Modifications:
    - target: {fileID: 11400004, guid: 8a0cab5ff0a9b465bbc169d7ad27a67f, type: 2}
      propertyPath: m_OnClick.m_PersistentCalls.m_Calls.Array.size
      value: 1
      objectReference: {fileID: 0}
    - target: {fileID: 22400004, guid: 8a0cab5ff0a9b465bbc169d7ad27a67f, type: 2}
      propertyPath: m_LocalPosition.x
      value: 298.48764
      objectReference: {fileID: 0}
    - target: {fileID: 22400004, guid: 8a0cab5ff0a9b465bbc169d7ad27a67f, type: 2}
      propertyPath: m_LocalPosition.y
      value: 0
      objectReference: {fileID: 0}
    - target: {fileID: 22400004, guid: 8a0cab5ff0a9b465bbc169d7ad27a67f, type: 2}
      propertyPath: m_LocalPosition.z
      value: 0
      objectReference: {fileID: 0}
    - target: {fileID: 22400004, guid: 8a0cab5ff0a9b465bbc169d7ad27a67f, type: 2}
      propertyPath: m_LocalRotation.x
      value: 0
      objectReference: {fileID: 0}
    - target: {fileID: 22400004, guid: 8a0cab5ff0a9b465bbc169d7ad27a67f, type: 2}
      propertyPath: m_LocalRotation.y
      value: -0.00000008940697
      objectReference: {fileID: 0}
    - target: {fileID: 22400004, guid: 8a0cab5ff0a9b465bbc169d7ad27a67f, type: 2}
      propertyPath: m_LocalRotation.z
      value: 0
      objectReference: {fileID: 0}
    - target: {fileID: 22400004, guid: 8a0cab5ff0a9b465bbc169d7ad27a67f, type: 2}
      propertyPath: m_LocalRotation.w
      value: 1
      objectReference: {fileID: 0}
    - target: {fileID: 22400004, guid: 8a0cab5ff0a9b465bbc169d7ad27a67f, type: 2}
      propertyPath: m_RootMapOrder
      value: 2
      objectReference: {fileID: 0}
    - target: {fileID: 22400004, guid: 8a0cab5ff0a9b465bbc169d7ad27a67f, type: 2}
      propertyPath: m_Position.x
      value: 405.20526
      objectReference: {fileID: 0}
    - target: {fileID: 22400004, guid: 8a0cab5ff0a9b465bbc169d7ad27a67f, type: 2}
      propertyPath: m_Position.y
      value: -100
      objectReference: {fileID: 0}
    - target: {fileID: 22400004, guid: 8a0cab5ff0a9b465bbc169d7ad27a67f, type: 2}
      propertyPath: m_SizeDelta.x
      value: 100
      objectReference: {fileID: 0}
    - target: {fileID: 22400004, guid: 8a0cab5ff0a9b465bbc169d7ad27a67f, type: 2}
      propertyPath: m_SizeDelta.y
      value: 100
      objectReference: {fileID: 0}
    - target: {fileID: 22400004, guid: 8a0cab5ff0a9b465bbc169d7ad27a67f, type: 2}
      propertyPath: m_AnchorMin.x
      value: 0
      objectReference: {fileID: 0}
    - target: {fileID: 22400004, guid: 8a0cab5ff0a9b465bbc169d7ad27a67f, type: 2}
      propertyPath: m_AnchorMin.y
      value: 1
      objectReference: {fileID: 0}
    - target: {fileID: 22400004, guid: 8a0cab5ff0a9b465bbc169d7ad27a67f, type: 2}
      propertyPath: m_AnchorMax.x
      value: 0
      objectReference: {fileID: 0}
    - target: {fileID: 22400004, guid: 8a0cab5ff0a9b465bbc169d7ad27a67f, type: 2}
      propertyPath: m_AnchorMax.y
      value: 1
      objectReference: {fileID: 0}
    - target: {fileID: 11400002, guid: 8a0cab5ff0a9b465bbc169d7ad27a67f, type: 2}
      propertyPath: m_Text
      value: 3
      objectReference: {fileID: 0}
    - target: {fileID: 100004, guid: 8a0cab5ff0a9b465bbc169d7ad27a67f, type: 2}
      propertyPath: m_Name
      value: GridCell-3
      objectReference: {fileID: 0}
    - target: {fileID: 22400004, guid: 8a0cab5ff0a9b465bbc169d7ad27a67f, type: 2}
      propertyPath: m_RootOrder
      value: 2
      objectReference: {fileID: 0}
    - target: {fileID: 22400004, guid: 8a0cab5ff0a9b465bbc169d7ad27a67f, type: 2}
      propertyPath: m_AnchoredPosition.x
      value: 405.20526
      objectReference: {fileID: 0}
    - target: {fileID: 22400004, guid: 8a0cab5ff0a9b465bbc169d7ad27a67f, type: 2}
      propertyPath: m_AnchoredPosition.y
      value: -100
      objectReference: {fileID: 0}
    - target: {fileID: 11400004, guid: 8a0cab5ff0a9b465bbc169d7ad27a67f, type: 2}
      propertyPath: m_OnClick.m_PersistentCalls.m_Calls.Array.data[0].m_Mode
      value: 1
      objectReference: {fileID: 0}
    - target: {fileID: 11400004, guid: 8a0cab5ff0a9b465bbc169d7ad27a67f, type: 2}
      propertyPath: m_OnClick.m_PersistentCalls.m_Calls.Array.data[0].m_CallState
      value: 2
      objectReference: {fileID: 0}
    - target: {fileID: 11400004, guid: 8a0cab5ff0a9b465bbc169d7ad27a67f, type: 2}
      propertyPath: m_OnClick.m_PersistentCalls.m_Calls.Array.data[0].m_Target
      value: 
      objectReference: {fileID: 1861799213}
    - target: {fileID: 11400004, guid: 8a0cab5ff0a9b465bbc169d7ad27a67f, type: 2}
      propertyPath: m_OnClick.m_PersistentCalls.m_Calls.Array.data[1].m_Mode
      value: 1
      objectReference: {fileID: 0}
    - target: {fileID: 11400004, guid: 8a0cab5ff0a9b465bbc169d7ad27a67f, type: 2}
      propertyPath: m_OnClick.m_PersistentCalls.m_Calls.Array.data[1].m_CallState
      value: 2
      objectReference: {fileID: 0}
    - target: {fileID: 11400004, guid: 8a0cab5ff0a9b465bbc169d7ad27a67f, type: 2}
      propertyPath: m_OnClick.m_PersistentCalls.m_Calls.Array.data[0].m_MethodName
      value: ThreeBtn
      objectReference: {fileID: 0}
    - target: {fileID: 11400004, guid: 8a0cab5ff0a9b465bbc169d7ad27a67f, type: 2}
      propertyPath: m_OnClick.m_PersistentCalls.m_Calls.Array.data[0].m_Arguments.m_ObjectArgumentAssemblyTypeName
      value: UnityEngine.Object, UnityEngine
      objectReference: {fileID: 0}
    m_RemovedComponents: []
  m_ParentPrefab: {fileID: 100100000, guid: 8a0cab5ff0a9b465bbc169d7ad27a67f, type: 2}
  m_IsPrefabParent: 0
